%YAML 1.1
%TAG !u! tag:unity3d.com,2011:
--- !u!114 &11400000
MonoBehaviour:
  m_ObjectHideFlags: 0
  m_CorrespondingSourceObject: {fileID: 0}
  m_PrefabInstance: {fileID: 0}
  m_PrefabAsset: {fileID: 0}
  m_GameObject: {fileID: 0}
  m_Enabled: 1
  m_EditorHideFlags: 0
  m_Script: {fileID: 11500000, guid: 45013914115dd724d92812e85d7e609e, type: 3}
  m_Name: 13
  m_EditorClassIdentifier: 
  id: 13
  displayName: Griffin Egg
  icon: {fileID: 21300000, guid: 3655e50d708312444b59f3bc371f33c1, type: 3}
  baseValue: 750
  prices:
  - 745.49
  - 742.59
  - 727.77
  - 727.36
  - 730.44
  - 715.43
  - 702.9
  - 698.85
  - 686.59
  - 681.7
  - 665.86
  - 656.94
  - 648.49
  - 650.47
  - 648.65
  - 650.54
  - 643.84
  - 634.39
  - 629.15
  - 627.06
  - 624.29
  - 619.66
  - 605.33
  - 592.12
  - 588.05
  - 578.17
  - 571.79
  - 563.04
  - 553.72
  - 547.95
  - 543.86
  - 539.37
  - 535.88
  - 536.06
  - 539.94
  - 534.38
  - 541.83
  - 536.26
  - 541.54
  - 547.24
  - 542.67
  - 549.88
  - 552.86
  - 555.25
  - 549.73
  - 552.21
  - 560.08
  - 560.66
  - 568.33
  - 568.22
  - 571.44
  - 568.8
  - 568.13
  - 568.16
  - 564.46
  - 560.25
  - 564.28
  - 563.62
  - 558.79
  - 562.46
  - 568.05
  - 575.56
  - 578.14
  - 587.69
  - 587.12
  - 594.97
  - 596.69
  - 595.57
  - 598.83
  - 604.68
  - 613.05
  - 610.07
  - 614.72
  - 623.35
  - 627.73
  - 634.24
  - 637.39
  - 642.13
  - 649.09
  - 653.47
  - 651.77
  - 651.53
  - 656.81
  - 652.67
  - 657.84
  - 655.07
  - 658.17
  - 665.62
  - 661.79
  - 668.94
  demanda: ffffffffffffffffffffffff010000000100000001000000010000000100000001000000ffffffffffffffffffffffff
  oferta: 02000000fefffffffefffffffefffffffefffffffefffffffeffffff0200000002000000020000000200000002000000
  dayTempAlter: 
